\select@language {french}
\contentsline {section}{\numberline {1}Introduction}{4}{section.1}
\contentsline {section}{\numberline {2}Cas d'utilisation et exigences fonctionnelles}{4}{section.2}
\contentsline {section}{\numberline {3}Terminologie et sigles utilis\IeC {\'e}s}{4}{section.3}
\contentsline {section}{\numberline {4}Environnement de test}{4}{section.4}
\contentsline {section}{\numberline {5}Responsabilit\IeC {\'e}s et strat\IeC {\'e}gie}{4}{section.5}
\contentsline {section}{\numberline {6}Gestion des tests unitaires}{5}{section.6}
\contentsline {section}{\numberline {7}Suivis des anomalies}{5}{section.7}
\contentsline {section}{\numberline {8}Gestion des tests fonctionnels}{6}{section.8}
\contentsline {section}{\numberline {9}Tests fonctionnels}{6}{section.9}
<<<<<<< HEAD
\contentsline {section}{\numberline {10}Test des exigences fonctionnelles}{15}{section.10}
\contentsline {section}{\numberline {11}Qualit\IeC {\'e}}{17}{section.11}
\contentsline {section}{\numberline {12}Satisfaction du client}{17}{section.12}
\contentsline {section}{\numberline {13}Contenu des livraisons}{19}{section.13}
\contentsline {subsection}{\numberline {13.1}Livraison 1}{19}{subsection.13.1}
=======
\contentsline {section}{\numberline {10}Test des exigences fontionnelles}{14}{section.10}
\contentsline {section}{\numberline {11}Qualit\IeC {\'e}}{16}{section.11}
\contentsline {section}{\numberline {12}Satisfaction du client}{16}{section.12}
>>>>>>> a9f4733eddb03e69cbb309410109a5ee1ae55fac
