\relax 
\providecommand\hyper@newdestlabel[2]{}
\catcode `:\active 
\catcode `;\active 
\catcode `!\active 
\catcode `?\active 
\providecommand\HyperFirstAtBeginDocument{\AtBeginDocument}
\HyperFirstAtBeginDocument{\ifx\hyper@anchor\@undefined
\global\let\oldcontentsline\contentsline
\gdef\contentsline#1#2#3#4{\oldcontentsline{#1}{#2}{#3}}
\global\let\oldnewlabel\newlabel
\gdef\newlabel#1#2{\newlabelxx{#1}#2}
\gdef\newlabelxx#1#2#3#4#5#6{\oldnewlabel{#1}{{#2}{#3}}}
\AtEndDocument{\ifx\hyper@anchor\@undefined
\let\contentsline\oldcontentsline
\let\newlabel\oldnewlabel
\fi}
\fi}
\global\let\hyper@last\relax 
\gdef\HyperFirstAtBeginDocument#1{#1}
\providecommand\HyField@AuxAddToFields[1]{}
\providecommand\HyField@AuxAddToCoFields[2]{}
\providecommand \oddpage@label [2]{}
\select@language{french}
\@writefile{toc}{\select@language{french}}
\@writefile{lof}{\select@language{french}}
\@writefile{lot}{\select@language{french}}
\@writefile{toc}{\contentsline {section}{\numberline {1}Introduction}{4}{section.1}}
\@writefile{toc}{\contentsline {section}{\numberline {2}Cas d'utilisation et exigences fonctionnelles}{4}{section.2}}
\@writefile{toc}{\contentsline {section}{\numberline {3}Terminologie et sigles utilis\IeC {\'e}s}{4}{section.3}}
\@writefile{toc}{\contentsline {section}{\numberline {4}Environnement de test}{4}{section.4}}
\@writefile{toc}{\contentsline {section}{\numberline {5}Responsabilit\IeC {\'e}s et strat\IeC {\'e}gie}{4}{section.5}}
\@writefile{toc}{\contentsline {section}{\numberline {6}Gestion des tests unitaires}{5}{section.6}}
\@writefile{toc}{\contentsline {section}{\numberline {7}Suivis des anomalies}{5}{section.7}}
\@writefile{toc}{\contentsline {section}{\numberline {8}Gestion des tests fonctionnels}{6}{section.8}}
\@writefile{toc}{\contentsline {section}{\numberline {9}Tests fonctionnels}{6}{section.9}}
<<<<<<< HEAD
\@writefile{toc}{\contentsline {section}{\numberline {10}Test des exigences fonctionnelles}{15}{section.10}}
\@writefile{toc}{\contentsline {section}{\numberline {11}Qualit\IeC {\'e}}{17}{section.11}}
\@writefile{toc}{\contentsline {section}{\numberline {12}Satisfaction du client}{17}{section.12}}
\@writefile{toc}{\contentsline {section}{\numberline {13}Contenu des livraisons}{19}{section.13}}
\@writefile{toc}{\contentsline {subsection}{\numberline {13.1}Livraison 1}{19}{subsection.13.1}}
=======
\@writefile{toc}{\contentsline {section}{\numberline {10}Test des exigences fontionnelles}{14}{section.10}}
\@writefile{toc}{\contentsline {section}{\numberline {11}Qualit\IeC {\'e}}{16}{section.11}}
\@writefile{toc}{\contentsline {section}{\numberline {12}Satisfaction du client}{16}{section.12}}
>>>>>>> a9f4733eddb03e69cbb309410109a5ee1ae55fac
