\select@language {french}
\contentsline {section}{\numberline {1}Contexte du projet}{4}{section.1}
\contentsline {section}{\numberline {2}Processus de d\IeC {\'e}veloppement}{5}{section.2}
\contentsline {section}{\numberline {3}Organisation et responsabilit\IeC {\'e}}{6}{section.3}
\contentsline {subsection}{\numberline {3.1}Responsabilit\IeC {\'e}s}{6}{subsection.3.1}
\contentsline {subsection}{\numberline {3.2}M\IeC {\'e}thodologie de d\IeC {\'e}veloppement}{6}{subsection.3.2}
\contentsline {section}{\numberline {4}Organigramme des t\IeC {\^a}ches}{8}{section.4}
\contentsline {subsection}{\numberline {4.1}Tableau liste des t\IeC {\^a}ches/dur\IeC {\'e}e estim\IeC {\'e}e}{8}{subsection.4.1}
\contentsline {subsection}{\numberline {4.2}Outils utilis\IeC {\'e}s}{9}{subsection.4.2}
\contentsline {section}{\numberline {5}Planning g\IeC {\'e}n\IeC {\'e}ral}{10}{section.5}
\contentsline {subsection}{\numberline {5.1}Les it\IeC {\'e}rations}{10}{subsection.5.1}
\contentsline {subsection}{\numberline {5.2}Diagramme de Gantt}{11}{subsection.5.2}
