\relax 
\providecommand\hyper@newdestlabel[2]{}
\catcode `:\active 
\catcode `;\active 
\catcode `!\active 
\catcode `?\active 
\providecommand\HyperFirstAtBeginDocument{\AtBeginDocument}
\HyperFirstAtBeginDocument{\ifx\hyper@anchor\@undefined
\global\let\oldcontentsline\contentsline
\gdef\contentsline#1#2#3#4{\oldcontentsline{#1}{#2}{#3}}
\global\let\oldnewlabel\newlabel
\gdef\newlabel#1#2{\newlabelxx{#1}#2}
\gdef\newlabelxx#1#2#3#4#5#6{\oldnewlabel{#1}{{#2}{#3}}}
\AtEndDocument{\ifx\hyper@anchor\@undefined
\let\contentsline\oldcontentsline
\let\newlabel\oldnewlabel
\fi}
\fi}
\global\let\hyper@last\relax 
\gdef\HyperFirstAtBeginDocument#1{#1}
\providecommand\HyField@AuxAddToFields[1]{}
\providecommand\HyField@AuxAddToCoFields[2]{}
\select@language{french}
\@writefile{toc}{\select@language{french}}
\@writefile{lof}{\select@language{french}}
\@writefile{lot}{\select@language{french}}
\@writefile{toc}{\contentsline {section}{\numberline {1}Contexte du projet}{4}{section.1}}
\@writefile{toc}{\contentsline {section}{\numberline {2}Processus de d\IeC {\'e}veloppement}{5}{section.2}}
\@writefile{toc}{\contentsline {section}{\numberline {3}Organisation et responsabilit\IeC {\'e}}{6}{section.3}}
\@writefile{toc}{\contentsline {subsection}{\numberline {3.1}Responsabilit\IeC {\'e}s}{6}{subsection.3.1}}
\@writefile{toc}{\contentsline {subsection}{\numberline {3.2}M\IeC {\'e}thodologie de d\IeC {\'e}veloppement}{6}{subsection.3.2}}
\@writefile{toc}{\contentsline {section}{\numberline {4}Organigramme des t\IeC {\^a}ches}{8}{section.4}}
\@writefile{toc}{\contentsline {subsection}{\numberline {4.1}Tableau liste des t\IeC {\^a}ches/dur\IeC {\'e}e estim\IeC {\'e}e}{8}{subsection.4.1}}
\@writefile{toc}{\contentsline {subsection}{\numberline {4.2}Outils utilis\IeC {\'e}s}{9}{subsection.4.2}}
\@writefile{toc}{\contentsline {section}{\numberline {5}Planning g\IeC {\'e}n\IeC {\'e}ral}{10}{section.5}}
\@writefile{toc}{\contentsline {subsection}{\numberline {5.1}Les it\IeC {\'e}rations}{10}{subsection.5.1}}
\@writefile{toc}{\contentsline {subsection}{\numberline {5.2}Diagramme de Gantt}{11}{subsection.5.2}}
