\relax 
\providecommand\hyper@newdestlabel[2]{}
\catcode `:\active 
\catcode `;\active 
\catcode `!\active 
\catcode `?\active 
\providecommand\HyperFirstAtBeginDocument{\AtBeginDocument}
\HyperFirstAtBeginDocument{\ifx\hyper@anchor\@undefined
\global\let\oldcontentsline\contentsline
\gdef\contentsline#1#2#3#4{\oldcontentsline{#1}{#2}{#3}}
\global\let\oldnewlabel\newlabel
\gdef\newlabel#1#2{\newlabelxx{#1}#2}
\gdef\newlabelxx#1#2#3#4#5#6{\oldnewlabel{#1}{{#2}{#3}}}
\AtEndDocument{\ifx\hyper@anchor\@undefined
\let\contentsline\oldcontentsline
\let\newlabel\oldnewlabel
\fi}
\fi}
\global\let\hyper@last\relax 
\gdef\HyperFirstAtBeginDocument#1{#1}
\providecommand\HyField@AuxAddToFields[1]{}
\providecommand\HyField@AuxAddToCoFields[2]{}
\providecommand \oddpage@label [2]{}
\select@language{french}
\@writefile{toc}{\select@language{french}}
\@writefile{lof}{\select@language{french}}
\@writefile{lot}{\select@language{french}}
\@writefile{toc}{\contentsline {section}{\numberline {1}Introduction}{4}{section.1}}
\@writefile{toc}{\contentsline {section}{\numberline {2}Liste des risques}{4}{section.2}}
\@writefile{toc}{\contentsline {section}{\numberline {3}Valeurs d\IeC {\'e}termin\IeC {\'e}es}{5}{section.3}}
\@writefile{toc}{\contentsline {section}{\numberline {4}Tableau r\IeC {\'e}capitulatif}{5}{section.4}}
\@writefile{toc}{\contentsline {section}{\numberline {5}Solutions}{6}{section.5}}
\@writefile{toc}{\contentsline {section}{\numberline {6}Risques majeurs}{6}{section.6}}
