\select@language {french}
\contentsline {section}{\numberline {1}Introduction}{4}{section.1}
\contentsline {section}{\numberline {2}Liste des risques}{4}{section.2}
\contentsline {section}{\numberline {3}Valeurs d\IeC {\'e}termin\IeC {\'e}es}{5}{section.3}
\contentsline {section}{\numberline {4}Tableau r\IeC {\'e}capitulatif}{5}{section.4}
\contentsline {section}{\numberline {5}Solutions}{6}{section.5}
\contentsline {section}{\numberline {6}Risques majeurs}{6}{section.6}
